[u][07/Apr/2019:14:31:46 +0300] 0.218 0.223 200 91.235.185.60 shop.wdevelopers.ru GET /contacts HTTP/2.0 "Mozilla/5.0 (X11; Linux x86_64) AppleWebKit/537.36 (KHTML, like Gecko) Ubuntu Chromium/73.0.3683.75 Chrome/73.0.3683.75 Safari/537.36" "https://shop.wdevelopers.ru/" 7671 141.8.192.227 a0194111
[u][07/Apr/2019:14:31:47 +0300] 0.000 0.600 200 91.235.185.60 shop.wdevelopers.ru GET /vendor/bootstrap/css/bootstrap.min.css.map HTTP/2.0 "Mozilla/5.0 (X11; Linux x86_64) AppleWebKit/537.36 (KHTML, like Gecko) Ubuntu Chromium/73.0.3683.75 Chrome/73.0.3683.75 Safari/537.36" "-" 96108 141.8.192.227 a0194111
[u][07/Apr/2019:14:31:47 +0300] 0.200 0.550 404 91.235.185.60 shop.wdevelopers.ru GET /vendor/bootstrap/js/popper.js.map HTTP/2.0 "Mozilla/5.0 (X11; Linux x86_64) AppleWebKit/537.36 (KHTML, like Gecko) Ubuntu Chromium/73.0.3683.75 Chrome/73.0.3683.75 Safari/537.36" "-" 2618 141.8.192.227 a0194111
[u][07/Apr/2019:14:32:22 +0300] 30.350 30.350 500 91.235.185.60 shop.wdevelopers.ru POST /contact-form HTTP/2.0 "Mozilla/5.0 (X11; Linux x86_64) AppleWebKit/537.36 (KHTML, like Gecko) Ubuntu Chromium/73.0.3683.75 Chrome/73.0.3683.75 Safari/537.36" "https://shop.wdevelopers.ru/contacts" 20010 141.8.192.227 a0194111
[u][07/Apr/2019:14:34:12 +0300] 0.192 0.192 200 91.235.185.60 shop.wdevelopers.ru GET /contacts HTTP/2.0 "Mozilla/5.0 (X11; Linux x86_64) AppleWebKit/537.36 (KHTML, like Gecko) Ubuntu Chromium/73.0.3683.75 Chrome/73.0.3683.75 Safari/537.36" "https://shop.wdevelopers.ru/" 7668 141.8.192.227 a0194111
[u][07/Apr/2019:14:34:12 +0300] 0.200 0.350 404 91.235.185.60 shop.wdevelopers.ru GET /vendor/bootstrap/js/popper.js.map HTTP/2.0 "Mozilla/5.0 (X11; Linux x86_64) AppleWebKit/537.36 (KHTML, like Gecko) Ubuntu Chromium/73.0.3683.75 Chrome/73.0.3683.75 Safari/537.36" "-" 2618 141.8.192.227 a0194111
[u][07/Apr/2019:14:34:17 +0300] 0.450 0.450 500 91.235.185.60 shop.wdevelopers.ru POST /contact-form HTTP/2.0 "Mozilla/5.0 (X11; Linux x86_64) AppleWebKit/537.36 (KHTML, like Gecko) Ubuntu Chromium/73.0.3683.75 Chrome/73.0.3683.75 Safari/537.36" "https://shop.wdevelopers.ru/contacts" 21378 141.8.192.227 a0194111
[u][07/Apr/2019:14:34:22 +0300] 1.850 1.850 500 91.235.185.60 shop.wdevelopers.ru POST /contact-form HTTP/2.0 "Mozilla/5.0 (X11; Linux x86_64) AppleWebKit/537.36 (KHTML, like Gecko) Ubuntu Chromium/73.0.3683.75 Chrome/73.0.3683.75 Safari/537.36" "https://shop.wdevelopers.ru/contacts" 21372 141.8.192.227 a0194111
